27-Dec-2017 16:31:13
caller: ProfileService.CreatePaymentToken, Input
: {"ProfileID":7,"Token":"string","Email":"string"}

27-Dec-2017 16:33:45
caller: ProfileService.CreatePaymentToken, Input
: {"ProfileID":7,"Token":"string","Email":"string"}

27-Dec-2017 16:37:07
caller: ProfileService.CreatePaymentToken, Input
: {"ProfileID":7,"Token":"string","Email":"string"}

Date and Time: 27-Dec-2017 04:37:13
ErrorMessage: 
 One or more errors occurred.
No such token: string

27-Dec-2017 16:37:13
caller: ProfileService.CreatePaymentToken, Response
: {"Profile":null,"ResponseCode":"06","ResponseDescription":"No such token: string"}

