28-Dec-2017 12:01:04
caller: ProfileService.UpdatePaymentToken, Input
: {"ProfileID":7,"Token":"tok_mastercard"}

28-Dec-2017 12:01:04
caller: ProfileService.FindUser UserID
: 7

28-Dec-2017 12:01:27
caller: PaymentService.UpdateCustomer, Input
: tok_mastercard

28-Dec-2017 12:10:50
caller: ProfileService.UpdatePaymentToken, Input
: {"ProfileID":7,"Token":"tok_mastercard"}

28-Dec-2017 12:10:50
caller: ProfileService.FindUser UserID
: 7

28-Dec-2017 12:11:04
caller: PaymentService.UpdateCustomer, Input
: tok_mastercard

28-Dec-2017 12:17:50
caller: ProfileService.UpdatePaymentToken, Input
: {"ProfileID":7,"Token":"tok_mastercard"}

28-Dec-2017 12:17:50
caller: ProfileService.FindUser UserID
: 7

28-Dec-2017 12:18:16
caller: PaymentService.UpdateCustomer, Input
: tok_mastercard

28-Dec-2017 12:25:59
caller: ProfileService.UpdatePaymentToken, Input
: {"ProfileID":7,"Token":"tok_mastercard"}

28-Dec-2017 12:25:59
caller: ProfileService.FindUser UserID
: 7

28-Dec-2017 12:26:10
caller: PaymentService.UpdateCustomer, Input
: tok_mastercard

28-Dec-2017 12:29:36
caller: ProfileService.UpdatePaymentToken, Input
: {"ProfileID":7,"Token":"tok_mastercard"}

28-Dec-2017 12:29:37
caller: ProfileService.FindUser UserID
: 7

28-Dec-2017 12:29:42
caller: PaymentService.UpdateCustomer, Input
: tok_mastercard

Date and Time: 28-Dec-2017 12:31:24
ErrorMessage: 
 One or more errors occurred.
No such customer: tok_mastercard

28-Dec-2017 12:31:56
caller: ProfileService.UpdatePaymentToken, Input
: {"ProfileID":7,"Token":"tok_mastercard"}

28-Dec-2017 12:31:56
caller: ProfileService.FindUser UserID
: 7

28-Dec-2017 12:32:08
caller: PaymentService.UpdateCustomer, Input
: tok_mastercard

28-Dec-2017 12:32:44
caller: ProfileService.UpdatePaymentToken, Input
: {"ProfileID":7,"Token":"tok_mastercard"}

28-Dec-2017 12:32:44
caller: ProfileService.FindUser UserID
: 7

28-Dec-2017 12:32:44
caller: PaymentService.UpdateCustomer, Input
: tok_mastercard

28-Dec-2017 12:33:03
caller: ProfileService.UpdatePaymentToken, Input
: {"ProfileID":7,"Token":"tok_mastercard"}

28-Dec-2017 12:33:03
caller: ProfileService.FindUser UserID
: 7

28-Dec-2017 12:33:05
caller: PaymentService.UpdateCustomer, Input
: tok_mastercard

28-Dec-2017 12:34:31
caller: ProfileService.UpdatePaymentToken, Input
: {"ProfileID":7,"Token":"tok_mastercard"}

28-Dec-2017 12:34:31
caller: ProfileService.FindUser UserID
: 7

28-Dec-2017 12:34:32
caller: PaymentService.UpdateCustomer, Input
: tok_mastercard

28-Dec-2017 12:34:36
caller: ProfileService.UpdatePaymentToken, Input
: {"ProfileID":7,"Token":"tok_mastercard"}

28-Dec-2017 12:34:36
caller: ProfileService.FindUser UserID
: 7

28-Dec-2017 12:34:36
caller: PaymentService.UpdateCustomer, Input
: tok_mastercard

28-Dec-2017 12:41:54
caller: ProfileService.UpdatePaymentToken, Input
: {"ProfileID":7,"Token":"tok_mastercard"}

28-Dec-2017 12:41:54
caller: ProfileService.FindUser UserID
: 7

28-Dec-2017 12:41:59
caller: PaymentService.UpdateCustomer, Input
: tok_mastercard

28-Dec-2017 12:42:16
caller: ProfileService.UpdatePaymentToken, Input
: {"ProfileID":7,"Token":"tok_mastercard"}

28-Dec-2017 12:42:16
caller: ProfileService.FindUser UserID
: 7

28-Dec-2017 12:42:16
caller: PaymentService.UpdateCustomer, Input
: tok_mastercard

