14-Dec-2017 17:43:37
caller: ProfileService.FindUser UserID
: 0

Date and Time: 14-Dec-2017 05:44:58
ErrorMessage: 
 Object reference not set to an instance of an object.

Date and Time: 14-Dec-2017 06:16:34
ErrorMessage: 
 An error occurred while executing the command definition. See the inner exception for details.
Execution Timeout Expired.  The timeout period elapsed prior to completion of the operation or the server is not responding.
The wait operation timed out

Date and Time: 14-Dec-2017 06:16:34
ErrorMessage: 
 Object reference not set to an instance of an object.

Date and Time: 14-Dec-2017 06:18:00
ErrorMessage: 
 The underlying provider failed on Open.
A network-related or instance-specific error occurred while establishing a connection to SQL Server. The server was not found or was not accessible. Verify that the instance name is correct and that SQL Server is configured to allow remote connections. (provider: Named Pipes Provider, error: 40 - Could not open a connection to SQL Server)
The network path was not found

14-Dec-2017 18:19:28
caller: ProfileService.FindUser UserID
: 0

Date and Time: 14-Dec-2017 06:19:45
ErrorMessage: 
 Object reference not set to an instance of an object.

14-Dec-2017 18:22:54
caller: ProfileService.FindUser UserID
: 0

Date and Time: 14-Dec-2017 06:22:56
ErrorMessage: 
 Object reference not set to an instance of an object.

14-Dec-2017 18:26:36
caller: ProfileService.FindUser UserID
: 0

Date and Time: 14-Dec-2017 06:27:20
ErrorMessage: 
 Object reference not set to an instance of an object.

Date and Time: 14-Dec-2017 06:33:39
ErrorMessage: 
 An error occurred while starting a transaction on the provider connection. See the inner exception for details.
Execution Timeout Expired.  The timeout period elapsed prior to completion of the operation or the server is not responding.
The wait operation timed out

Date and Time: 14-Dec-2017 06:35:10
ErrorMessage: 
 The underlying provider failed on Open.
A network-related or instance-specific error occurred while establishing a connection to SQL Server. The server was not found or was not accessible. Verify that the instance name is correct and that SQL Server is configured to allow remote connections. (provider: Named Pipes Provider, error: 40 - Could not open a connection to SQL Server)
The network path was not found

14-Dec-2017 18:35:31
caller: ProfileService.FindUser UserID
: 0

14-Dec-2017 18:40:54
caller: ProfileService.FindUser UserID
: 0

Date and Time: 14-Dec-2017 06:41:12
ErrorMessage: 
 Object reference not set to an instance of an object.

14-Dec-2017 18:47:19
caller: ProfileService.FindUser UserID
: 0

Date and Time: 14-Dec-2017 06:47:28
ErrorMessage: 
 Object reference not set to an instance of an object.

Date and Time: 14-Dec-2017 06:57:59
ErrorMessage: 
 The operation cannot be completed because the DbContext has been disposed.

14-Dec-2017 19:01:19
caller: ProfileService.FindUser UserID
: 7

14-Dec-2017 19:01:42
caller: ProfileService.FindUser UserID
: 7

14-Dec-2017 19:04:39
caller: ProfileService.FindUser UserID
: 7

14-Dec-2017 19:04:47
caller: FirebaseProcessor.DoPOST: request
: {"to":"dmg0-fXb5-o:APA91bF4ASdvxIYVzhLMRDcpitHPTDdNmCXJE6MMMf2DGibKWSfiUXBqp5-VCYfglrVAIYYR9q9nEriADY0ti6JU8_1cbJdBN5oIPzINx6vN2Ebduk1tMrUE891oyuvyCfh8RAmArhmt","notification":{"title":"Chef Connect","body":"your session has been confirmed by cucciiop and resumed at 12/14/2017 7:04:42 PM"},"data":{"messageType":"session","operation":"update","status":2,"ProfileId":7,"ChefId":4,"Id":17}}

14-Dec-2017 19:04:47
caller: FirebaseProcessor.DoPOST
: Request Payload: {"to":"dmg0-fXb5-o:APA91bF4ASdvxIYVzhLMRDcpitHPTDdNmCXJE6MMMf2DGibKWSfiUXBqp5-VCYfglrVAIYYR9q9nEriADY0ti6JU8_1cbJdBN5oIPzINx6vN2Ebduk1tMrUE891oyuvyCfh8RAmArhmt","notification":{"title":"Chef Connect","body":"your session has been confirmed by cucciiop and resumed at 12/14/2017 7:04:42 PM"},"data":{"messageType":"session","operation":"update","status":2,"ProfileId":7,"ChefId":4,"Id":17}}

14-Dec-2017 19:04:51
caller: FirebaseProcessor.DoPOST: rawResponse
: {"multicast_id":6646583699363285918,"success":1,"failure":0,"canonical_ids":0,"results":[{"message_id":"0:1513274687554546%b4534f8db4534f8d"}]}

14-Dec-2017 19:14:44
caller: SessionService.GetRequestedSessinos
: {"ChefID":4}

14-Dec-2017 19:15:09
caller: ProfileService.FindUser UserID
: 7

